{
"menus": [
    {
      "_nid": "1",
      "_menu_name": "introduction",
      "_menu_content": "It gives us great pleasure to present this new App for Lemur-Watching; the first of its kind ever produced. This App is based on the third and fourth editions of Lemurs of Madagascar, with updates since the most recent of these, the French version, was published in 2014. As you will see, one of the main purposes of this App is to stimulate Lemur Ecotourism in the form of Lemur-Watching and Lemur Life-Listing, part of a global effort to stimulate Primate Ecotourism worldwide. We hope that this new tool will further encourage people to visit Madagascar and contribute to the conservation of these very endangered creatures, one of the most fascinating group of animals on our planet. \n\nAs is already well known, Madagascar is without a doubt the world’s highest primate conservation priority, with very high species diversity and unmatched endemism at the species, genus, and family levels. It is the second country on the world list for primate species diversity (in spite of being less than 7% the size of Brazil, the world leader in this respect, and roughly one-third the size of Indonesia, the third on the list), and its 103 species (107 taxa when you include subspecies) are all endemic.1 This diversity is even more striking at the generic and family levels—fully five families and 15 genera are found nowhere else. Compare this to Brazil, the richest country on Earth in terms of primate species and subspecies, with 149 (85 or 57% of which are endemic); only three of its 18 genera are endemic, and none of its five families.\n\nFurthermore, based on the most recent IUCN Red-Listing Workshop, held in Antananarivo in July, 2012, 87% of the lemurs are now threatened with extinction on the IUCN Red List of 2015; 24 of these are Critically Endangered, 49 are Endangered, and another 20 are Vulnerable. Four of the species and subspecies are currently listed as Data Deficient, and the threatened status of another four species, described after the 2012 workshop, have yet to be assessed. \n\nLooking at Madagascar’s primate diversity in yet another way, although it is only one of 86 countries to have wild primate populations, it alone is home to 15% (107 of 702) of all primate species and subspecies, 20% (15 of 76) of all primate genera, and 36% (5 of 16) of all primate families—a great responsibility for one single nation.\n\nMadagascar also demonstrates clearly that primate extinctions are a very real phenomenon and not just a figment of the conservationist’s imagination (see Extinct Lemurs). Fully eight genera and at least 17 species of lemur have already gone extinct on this island since the arrival of our own species there roughly 2,000 years ago. As indicated in the pages that follow, many others could disappear within the next few decades if rapid action is not taken. Today, the major threats to lemurs include deforestation due to slash-and-burn agriculture (known as tavy in Madagascar), logging, firewood collection, charcoal production, the seasonal burning of dry forests to create cattle pasture, and live capture of lemurs as pets. Sadly, the hunting of lemurs as a source of food, a threat that we used to consider less severe than in other parts of the world, is now emerging as a major problem in many areas. It therefore requires special attention.\n\n###########################################################What is more, Madagascar is just coming out of a five-year  period of political turmoil, with a coup that took place in early 2009 and a government that lasted until the end of 2013, unrecognized by any other nation on Earth. Although many conservation activities continued in spite of the political problems, the breakdown of law and order in certain parts of the country had serious impacts, and much of it continues to the present day even under the legitimate government of President Hery Rajaonarimampianina, elected in December 2013, and inaugurated in January, 2014. This has especially been the case in parks and reserves with valuable timber such as the national parks of Marojejy and Masoala in the northeastern part of the country. Almost immediately following the onset of the crisis, illegal loggers moved into both of these protected areas. Organized hunting of lemurs for commercial purposes sprung up in that region as well, but now appears to be under control—at least for the time-being—as a result of a concerted international press campaign that brought the issue to the attention of the Malagasy authorities. To further exacerbate the problem, most international donor agencies suspended their support to Madagascar, excepting only assistance for the most dire humanitarian situations. This suspension has included support for conservation programs from bilateral agencies, the World Bank, and others. Most of the international and national non-governmental organizations, however, continued to be active in Madagascar even during the crisis, and we were able to maintain many of the most important programs, although with far less resources. Fortunately, following the election of President Rajaonarimampianina, much of this foreign assistance has been reinstated, but the capacity to absorb new resources remains somewhat limited.\n\nConservation International and the Primate Specialist Group of the International Union for Conservation of Nature’s Species Survival Commission (IUCN SSC), along with numerous other organizations, have long recognized Madagascar as one of their top priorities. Our four editions of Lemurs of Madagascar were designed to facilitate the identification of lemurs in the field and to summarize available data on their ecology, distribution and conservation status—in the hope that this would stimulate further interest in the survival of these animals in their natural habitats. The same is now true of this Lemur-Watching App. Amazingly, in spite of several centuries of observation and collection and five decades of research, we are still discovering new species, we are not clear as to the limits of the distributions of many of the known species, and we have at best only anecdotal information on the conservation status and population numbers for the majority of them.\n\nIncreased field and laboratory research is showing us how little we knew of these animals as recently as a decade ago. Indeed, a total of 48 lemur species and subspecies previously unknown to science have been described since the first edition of this guide was published in 1994; four of them since the fourth edition in 2014. Since 1994, a further nine old names have been resurrected from the literature (Microcebus griseorufus, Cheirogaleus crossleyi, Cheirogaleus sibreei, Cheirogaleus thomasi, Lepilemur ankaranensis, Hapalemur meridionalis, Eulemur rufifrons, Varecia variegata editorum and Varecia variegata subcincta) based on a re-evaluation of the diversity of each genus2. Much of this work has been conducted by authors of this volume. As we launch this App, we know of still more that await formal description, along with a number of others that may be new to science but which need further investigation. All these additions will bring the total lemur list for Madagascar to well over 110 and perhaps as many as 125, an amazing number for an island this size and with so little habitat remaining. Madagascar is sometimes referred to as the “eighth continent,” and for primates this is certainly the case since this particular fauna is comparable in every way to that of Africa, South and Central America, and Asia.\n###########################################################In addition to the description of previously unknown taxa, field research continues to fill the gaps in our knowledge of species once believed to be extremely rare and endangered. Two good examples are the hairy-eared dwarf lemur (Allocebus trichotis) and the aye-aye (Daubentonia madagascariensis). Both were once believed to be nearly extinct, but they now continue to be found at new (though still widely dispersed) sites in different parts of the country. Neither is ever found in large numbers nor at high densities, so we cannot consider their populations to be secure, but their situation is certainly better than had been believed as recently as 15–20 years ago.\n\nOn the other hand, with the description of so many new species (splitting up what were once considered wide-ranging forms), the conservation challenge increases dramatically. Indeed, many of the new taxa are known only from their type localities, and quite a few have tiny ranges in areas of extreme habitat fragmentation. Surely, as knowledge increases, a number of these new forms are likely to enter the ranks of the Endangered and even the Critically Endangered.\n\nGiven the amazing diversity of Madagascar’s lemur fauna and its great global importance, it is sobering to reflect on the extent of the degradation and loss of their forest habitats. By the 1950’s only 27% of Madagascar was forested3 and this had further declined to an estimated 16% by 2005 (Harper et al., 2007; MEFT, USAID and CI, 2009). About 50,000 ha of forest was destroyed each year between 2000 and 2005 (MEFT, USAID and CI, 2009). This equates to a current cover of about 94,000 km² of spiny, dry and humid forests (MEFT, USAID and CI, 2009)—an area roughly equivalent to the American state of Indiana. However, it should be remembered that the fragmentation and isolation of the forest fragments is extreme. Harper et al. (2007) calculated that the area of what they termed “core forest” (forest more than 1 km from a forest edge) decreased from more than 90,000 km² in the 1950s to less than 20,000 km² in 2000. The area in patches of 100 km² or more decreased by more than half in that period.\n\nIn 2003, only about 3% of Madagascar’s land area was protected, which corresponds to around 17,000 km² (1.7 million ha) or slightly more than the size of Connecticut, and only a small portion of that was effectively managed. In light of this, it was particularly encouraging when, in 2003, the Government of Madagascar committed to tripling the country's protected area coverage in five years (subsequently revised to be by the end of 2012). This pledge was announced by President Marc Ravalomanana in September 2003, at the 5th World Parks Congress in Durban, South Africa. This historic declaration served as a rallying point for everyone concerned for the biodiversity in Madagascar. Subsequently named “The Durban Vision,” this commitment attracted major international attention and funding.  What is more, the government has made good progress towards this goal, creating 29 new protected areas covering 30,000 km², with the creation of a further 40 additional reserves covering 11,000 km² still underway. By January 2010, there were 4.7 million ha of protected area in Madagascar, and the government, NGOs and community groups were actively working to create a further 1 million ha.\n\nFortunately, President Rajaonarimampianina has maintained “The Durban Vision,” and strongly reinforced it at the 6th World Parks Congress in Sydney, Australia, in November, 2014, 11 years after Ravalomanana’s original declaration. He promised to make “official” all new protected areas created under “The Durban Vision” by May, 2015, a promise that he has since kept.\n\nThe international community has pledged more than $50 million to a trust fund to cover some of the recurrent costs of the country's parks and reserves, a figure that was achieved by March, 2008, and continues to grow. Other funds are also providing significant support to Madagascar. The Critical Ecosystem Partnership Fund (CEPF), for example, provides grants to non-governmental organizations so that they can conserve the world's biodiversity hotspots. In this context, CEPF granted $4.25 million to 40 projects implemented in Madagascar between 2001 and 2006, and $1.4 million to 10 projects from 2009 to 2012. Subsequent to this initial investment of $5.65 million, CEPF has now committed another $7.5 million to be spent in Madagascar and the neighboring Indian Ocean islands during the period 2015−2020.\n\nIt is hoped that this first-ever App for Lemur-Watching will make a new contribution by providing user-friendly access to the most up-to-date information and by stimulating Lemur-Watching for everyone interested. The ecotourism industry, which had been growing steadily prior to the 2009 coup and which seems to be picking up once again, was fully espoused and supported by the government and by private enterprise. Indeed, it should continue as a major foreign exchange earner for the country, providing a strong economic justification for the maintenance and protection of parks, reserves and natural habitats. Since lemurs are the most attractive, conspicuous and best known component of Madagascar’s wildlife, they are ideally suited to stimulate the growth of ecotourism, and they continue to be Madagascar’s wildlife ambassadors to the world.\n\n\nRussell A. Mittermeier\nExecutive Vice-Chair, Conservation International\nChairman IUCN SSC Primate Specialist Group\n\nEdward E. Louis Jr.\nDirector, Conservation Genetics, Omaha’s Henry Doorly Zoo\n\nChristoph Schwitzer\nDirector of Conservation, Bristol Zoological Society\nCo-Vice Chair, Madagascar Section, IUCN SSC Primate Specialist Group\n\nOlivier Langrand\nExecutive Director, Critical Ecosystem Partnership Fund\n\nAnthony B. Rylands\nSenior Research Scientist, Conservation International\nDeputy Chair, IUCN/SSC Primate Specialist Group\n\nFrank Hawkins\nDirector for North America, International Union for the Conservation of Nature (IUCN)\n\nSerge Rajaobelina\nPresident, Fanamby\n\nJonah Ratsimbazafy\nSecretary General, Groupe d’Etude et de Recherche sur les Primates de Madagascar (GERP)\nCo-Vice Chair, Madagascar Section, IUCN SSC Primate Specialist Group\n\nRodin Rasoloarison\nUniversity of Antananarivo, and Coordinator for the German Primate Center (DPZ)\n\nChristian Roos\nGeneticist, German Primate Centre (DPZ)\nCo-Vice Chair, Southeast Asian Section, IUCN SSC Primate Specialist Group\n\nPeter M. Kappeler\nProfessor for Sociobiology and Anthropology, University of Göttingen\nDirector, Kirindy Forest Research Station (DPZ)\n\n\n"
    },
    {
      "_nid": "2",
      "_menu_name": "originoflemurs",
      "_menu_content": "The island of Madagascar once formed part of the great southern landmass of Gondwana. This enormous supercontinent began to break apart about 180 million years ago into the individual landmasses we know today as Africa, South America, Antarctica, Australia and the Indian subcontinent. Initially, Madagascar remained attached to Africa, but about 160 million years ago, together with the Indian subcontinent (in addition to Australia and Antarctica, which collectively formed “East Gondwana”), it began to break away from Africa (and South America, which collectively formed “West Gondwana”) (see Scotese, 2000; Yoder and Nowak, 2006). East and West Gondwana fragmented further, but the Indian subcontinent and Madagascar remained joined together as “Indo-Madagascar” for another 70 million years before finally separating about 90 million years ago. By that time, Madagascar had assumed its present position relative to the east coast of Africa, separated by the Mozambique Channel. The channel is just over 400 km wide at its narrowest point.\n\nThis has interesting implications for the origin of lemurs. In the early days of the science of plate tectonics—the subdiscipline of geology that deals with continental drift—it seemed that we had found a simple explanation for Madagascar’s biological uniqueness. The island, it was widely assumed, had merely parted from Africa with a sampling of that continent’s fauna aboard. And while Africa’s fauna saw a great deal of replacement of one group by another over the course of the epochs that followed, the fauna of isolated Madagascar did not.\n\nThe clarification of Madagascar’s geological history has resulted in much rethinking of this scenario. If Madagascar has been essentially where it is now in relation to Africa for the past 90 million years or so, we cannot explain the presence of lemurs in Madagascar by an African “founder effect” (although this may explain the presence of some of the more ancient members of the island’s biota). Primates comparable in evolutionary level to the lemurs (the so-called “primates of modern aspect” or euprimates) are not known in the fossil record until they appear abruptly in beginning of the Eocene epoch, some 55 million years ago (Martin et al., 2007). These are distinct from the plesiadapiforms (so-called archaic primates) which have a fossil record dating back to 65 million years ago. They are not necessarily primates, and they are not the ancestors of the euprimates—the radiations are separate. Tavaré et al. 2002; see also Soligo and Martin, 2006; Martin et al., 2007; Soligo et al. 2007) argued that the origin of the primates dates back to the Cretaceous. Most of the Eocene euprimates are either Adapiformes or Omomyiformes and, while quite similar, some authors link the former to the strepsirrhine primates (prosimians—all but the tarsiers) and the latter to the haplorhines (tarsiers, monkeys and apes) (see Kay et al., 1997; Fleagle 1999). The euprimates have, however been documented by fossils very largely from North America and Europe and the only fossil fragments from Africa are from Egypt and the Arabian peninsula (Yoder et al. 1996). There is virtually no fossil record of terrestrial mammals in Africa for the first half of the Age of Mammals, and there is no known last common ancestor of the euprimates. The adapiform primates went extinct in the Early Oligocene (34 million years ago) and were a radiation of euprimates very largely restricted to the northern continents. Martin (1993) and Martin et al. (2007) proposed that the adapiform and omomyiform euprimates together represent a parallel northern continental radiation quite separate from the strepsirrhines and haplorhines, but already sharing derived, primate-defining, features in common with them. They argue that the last common ancestor of the euprimates would, therefore, be much than is widely thought and would go back to the Cretaceous 85.9 million years ago (with the 95% confidence limits of 73.3–95.7 million years ago (Tavaré et al., 2002; Soligo et al., 2007).\n\nDivergence time estimates based on a number of studies have indicated the lemuroid dispersal to have occurred between 80 to more than 50 million years ago. A mean age was calculated by Masters et al. (2006) from 10 studies as 60 million years (that is when lemuroids diverged from the African-Asian lorisoids). A more recent analysis by Horvath et al. (2008) indicated an earlier date for the split between the African lorises (and galagos) and the lemurs at 75 million years ago (with a 95% credibility interval of 66.9–84.4 million years ago).\n###########################################################Nevertheless, even if the ancestors of the primates were much older than was previously thought, and even that certain key events in mammalian evolution took place in Africa a little earlier than in the northern continents (for which relatively complete fossil records are available), it would still seem that the ancestors of today’s lemurs most likely reached Madagascar by a sea crossing (from Africa: Yoder et al., 1996; Roos et al., 2004). Large, matted clumps of floating vegetation are routinely washed down major rivers and out to sea, sometimes with unwilling mammals and other passengers aboard. There are numerous cases in which this is the only plausible mechanism for the dispersal of terrestrial mammals (and other terrestrial vertebrates, see below) to oceanic islands (Simpson, 1940). Despite the width of the Mozambique Channel, Madagascar’s lemurs most likely represent one more such case.\n\nThere are a number of aspects, however, which need to be considered before accepting this as an explanation, not least among them whether sea currents and winds would favor, or permit even, a passage from the continent where the ancestors were presumed to have lived, and also whether the passage would be short enough for the survival of the unwilling passengers. This last aspect was discussed by Kappeler (2001), who indicated that torpor or month-long hibernation, a trait of Microcebusd and Cheirogaleus, would have contributed to the likelihood of survival of a sea passage. This was based on the incorrect supposition by Purvis (1995), that the mouse and dwarf lemurs are the most ancestral of the living lemurs. They are in fact one of the more recent lineages (see below). The galagos are the mainland relatives of the lemurs and they dos not show torpor or hibernation as an adaptation for stressful enviornent (Mzilikazi et al., 2004) and Stankiewicz et al. (2005) also discounted the evidence for this. Stankiewicz et al. (2005) reviewed and investigated the possibilities concerning the likelihood of a sea crossing, taking into account even such fortuitous events as freak winds and tornados or trees on the floating vegetation which could act as a sail. Their unequivocal conclusion was that “current and wind trajectories [as they are today] show that the most likely fate for a raft emerging from an estuary on the east coast of Africa is to follow the Mozambique current and become beached back on the African coast.”(p.1). That is, transport from Madagascar to Africa is very much more likely than the reverse. Even if the passage was possible, the time it would take would make survival of any mammals unikely. They concluded that an alternative explanation was needed for the ancestral lemur’s colonization of Madagascar.\n\nAnother possibility that has been raised is that islands or even a bridge was formed from peaks along the north-south running Davie Ridge in the Mozambique Channel at times when sea level was lower, which could have facilitated a crossing (e.g., Tattersall, 1982; McCall, 1997; Masters et al., 2006). This would have occurred during the second half of the Eocene and inot the Oligocene and the idea that it might have allowed for the lemur colonization of Madagascar by the ancestral lemur was suggested by McCall (1997) based on a divergence time for the lemuroids and lorisoids at about 40 million years ago. This, as discussed above, would be too recent (Martin, 2000). A land bridge has also been discounted for geological reasons (Rabinowitz and Woods, 2006) and even if there were small islands at some time during the Cenozoic, they still would have been separated by hundreds of kilometers of ocean (Ali and Huber 2010).\nKrause et al. (1997) suggested that the currents in the Mozambique Channel may have been favorable for a crossing from Africa to Madgascar in the Late Cretaceous, about 65 million years ago, when Madagascar and Africa lay about 15º further south from where they are now. This possibility was strongly supported by Ali and Huber (2010) who, using paleo-oceanographic modeling, concluded that in the Eocene epoch strong currents in the Mozambique Channel certainly would have flowed eastward and that there were occasions when so-called “trajectories” starting in the region of northeast Mozambique and Tanzania would have fast, jet-like eddies with velocities indicating that crossings to Madagascar could have been possible in 25–30 days or even less. The region was also then subject to tropical cyclones. \n\n###########################################################Transient storms and ocean current activity were consequently favorable to sea crossings; the cyclones providing not only the rafts (large, floating islands of vegetation) but also the drinking water. Ali and Huber (2010) concluded that favorable currents (from Mozambique and Tanzania to the north coast of Madagascar) would have persisted through the Oligocene, but that Madagascar, moving north, would have breached the margin of the subtropical and equatorial gyres by the early Miocene, and currents thereafter would have been perennially directed westwards, as they are today.\n\nWith the possible exception of a podocnemine turtle, the diverse record of Cretaceous terrestrial fossils on Madagascar, which includes representatives of several mammalian clades, has not (yet) revealed links to the extant Malagasy fauna. What is more, the few molecular-clock data that exist imply Cenozoic origination of the major vertebrate groups, from fishes to mammals, at a time when Madagascar was already isolated. For example, the closest relatives of Madagascar’s indigenous freshwater ﬁsh (known as cichlids) are found in the East African great lakes, and present molecular estimates of divergence between major cichlid lineages considerably younger than the separation of Madagascar from East Africa. Similar patterns are seen for all of the terrestrial groups of Malagasy mammals, including lemurs. There is even evidence of Cenozoic origins of certain groups (e.g., chameleons) on Madagascar that then purportedly emigrated to other landmasses. The global chameleon fossil record goes back 20 million years, yet molecular phylogenies suggest a Malagasy origin with multiple “out of Madagascar” radiations to Africa and other Indian Ocean islands. If this interpretation of the chameleon radiation is correct, there was “two-way trafﬁc” across the Mozambique Channel, and Madagascar provided a source for at least some biodiversity elsewhere, probably from sometime during the Oligocene.\n\nBut difﬁcult questions remain unanswered: chameleons and small terrestrial mammals (e.g., tenrecs, rodents, carnivora, and lemurs) might have crossed significant sectors of the Indian Ocean on vegetation ﬂoats; but what about larger terrestrial mammals (e.g., the recently extinct pygmy hippos), frogs (which are relatively intolerant of marine conditions), and freshwater fish in the apparent absence of land bridges? Could the larger mammals have swum significant distances? Could the rafts of vegetation been large enough to harbour freshwater and its inhabitants? These questions, going back as far as the time of Alfred Russel Wallace and the birth of the science of biogeography, still loom large and will not be answered until a better Cenozoic fossil record on Madagascar is brought to light.\n\nThe phylogenetic relationships among lemurs above the species level have been obscure for a long time. Several arrangements among lemur families—the main branches of this adaptive radiation—have been proposed based on analyses of various morphological traits (Tattersall and Schwartz, 1974; Tattersall, 1982). All subsequent genetic analyses have confirmed lemur monophyly, i.e., all lemurs are the descendants of a single successful colonization event (Yoder et al., 1996; Roos et al., 2004; Yoder and Yang, 2004, Karanth et al., 2005; Horvath et al., 2008). Supporting the findings of Roos et al. (2004) and Yoder and Yang (2004), Hovarth et al. (2008) concluded that the diversification of lemurs on Madagascar began with the separation of the lineage leading to the aye-aye (Daubentonia), about 66 million years ago (54.9–74.7 million years ago), extending as such across the Cretaceous/Tertiary boundary of 65 million years ago. Current evidence indicates that further splits of lemurs into families did not begin to occur until about 42 million years ago, more than 20 million years later in the middle Eocene, but the possibility remains that there were unrecorded lineage extinctions during this time (Yoder and Yang, 2004). The first major divergence in evidence today, following that of the separation of Daubentonia, was between the “true” lemurs (Lemuridae) and the ancestors of the Cheirogaleidae, Lepilemuridae and Indriidae. The indriids subsequently separated, and then the lepilemurids, all within a period of about 10 million years (Yoder and Yang, 2004).\n###########################################################Madagascar is the last place on Earth to have experienced the disappearance of diverse groups of large indigenous mammals (megafauna), and one of the last habitable continental regions to be colonized by humans. Most of the documented extinctions occurred after the ﬁrst arrival of humans on Madagascar, about 2,000 years ago (Burney et al., 2004). The earliest date for man’s presence came from cut marks suggesting the removal of flesh from a radius bone of a sloth lemur (Palaeopropithecus ingens) dated at 2,325±43 years before present (Perez et al., 2003).\n\nElephant birds, relatives of the ostrich, the largest of which stood 3 m tall and at 450 kg probably the heaviest bird that ever lived, were still present on the island near the end of the of the first millennium A.D., as were at least 16 species of large, now extinct lemurs. The stratigraphic resolution of this megafaunal “extinction window” is estimated to have been between 500 and 1,500 years ago. At least 53 species of large Malagasy mammals, birds, and reptiles have become extinct, leaving the region with no indigenous terrestrial vertebrates of a body weight greater than 12 kg.\n\nThe list of extinct land vertebrate species (see Goodman and Jungers, 2014) includes: a huge crocodile (Voay robustus), two species of giant tortoise (Gerlach and Canning, 1998); two aardvark-like mammals Plesiorycteropus (Order Bibymalagasia), three dwarf hippopotami (Stuenes, 1989; Faure and Guérin, 1990), a tenrec (Microgale) (Goodman et al., 2007), a giant fossa (Cryptoprocta) (Goodman et al., 1997, 2003), a giant jumping rat (Hypogeomys) (Goodman and Rakotondravony, 1996) and two other nesomyid rodents (Mein et al., 2010), two hipposiderid bats (Samonds, 2007), 21 birds, including three cuckoos (of an endemic genus Coua), a ground roller (of the endemic genus Brachypteracias), two shelducks (Alopochen and Centrornis), a mesite (Monias), a large gallinule (Hovacrex), a plover (Vanellus), a cormorant (Phalacrocorax), eight kinds of elephant birds (the endemic Aepyornis and Mullerornis), and three eagles, one of which was very large (Stephanoaetus and Aquila), besides 17 giant lemurs, some of which grew to be as large as a female gorilla (Goodman and Rakotondravony, 1996; Hawkins and Goodman, 2003; Goodman and Hawkins, 2008; Turvey, 2009).\n\nIn the next chapter we discuss in more detail the nature, natural history of the 17 large and remarkable lemurs that tragically are now extinct. Their loss emphasizes that the lemurs surviving today could face a similar fate if major conservation efforts currently underway are not effective. \n###########################################################Extinct Holocene vertebrates of Madagascar (not included are 17 extinct lemurs, see chapter 3).\n\nMammalia\nOrder Bibymalagasia\nFamily Plesiorycteropidae Patterson, 1975\nPlesiorycteropus madagascariensis Filhol, 1895\nPlesiorycteropus germainepetterae MacPhee, 1994\nOrder Afrosoricida\nFamily Tenrecidae Gray, 1821\nMicrogale macpheei Goodman, Vasey and Burney, 2007\nOrder Chiroptera\nFamily Hipposideridae Lydekker, 1891\nHipposideros besaoka Samonds, 2007\nTriaenops goodmani Samonds, 2007\nOrder Artiodactyla\nFamily Hippopotamidae Gray, 1821\nHippopotamus lemerlei A.Grandidier in Milne-Edwards, 1868 \nHippopotamus laloumena Faure and Guérin, 1990\nHippopatamus guldbergi Fovet, Faure and Guérin, 2011\nOrder Carnivora\nFamily Eupleridae Chenu, 1850\nCryptoprocta spelea G. Grandidier, 1902\nOrder Rodentia\nFamily Nesomyidae Forsyth-Major, 1897\nBrachytarsomys mahajambaensis Mein, Sénégas, Gommery, Ramanivosoa, Randrianantenaina and Kerloc’h, 2010\nHypogeomys australis G. Grandidier, 1903\nNesomys narindaensis Mein, Sénégas, Gommery, Ramanivosoa, Randrianantenaina and Kerloc’h, 2010\n\nAves\nOrder Aepyornithiformes\nFamily Aepyornithidae Bonaparte, 1853\nAepyornis gracilis Monnier, 1913\nAepyornis hildebrandti Burckhardt, 1893\nAepyornis maximus I. Geoffroy St. Hilaire, 1851\nAepyornis medius Milne-Edwards and A. Grandidier, 1866\nMullerornis agilis Milne-Edwards and A. Grandidier, 1894\nMullerornis betsilei Milne-Edwards and A. Grandidier, 1894\nMullerornis grandis Lamberton, 1934\nMullerornis rudis Milne-Edwards & A. Grandidier, 1894\nOrder Falconiformes\nFamily Accipitridae Vieillot, 1816\nStephanoaetus mahery Goodman, 1994\nAquila sp. A\nAquila sp. B\nOrder Anseriformes\nFamily Anatidae Vigors, 1825\nAlopochen sirabensis (Andrews, 1897)\nCentrornis majori Andrews, 1897\nOrder Pelecaniformes\nFamily Phalacrocoracidae Reichenbach, 1850\nPhalacrocorax sp.\nOrder Mesitornithiformes\nFamily Mesitornithidae Wetmore, 1960\nMonias sp. (undescribed)\nOrder Gruiformes\nFamily Rallidae Vigors, 1825\nHovacrex roberti (Andrews, 1897)\nOrder Charadriiformes\nFamily Charadriidae Vigors, 1825\nVanellus madagascariensis Goodman, 1996\nOrder Cuculiformes\nFamily Cuculidae Vigors, 1825\nCoua berthae Goodman and Ravoavy, 1993\nCoua delalandei (Temminck, 1827)\nCoua primaeva Milne-Edwards and A. Grandidier, 1895\nOrder Coraciiformes\nFamily Brachypteraciidae Bonaparte, 1854\nBrachypteracias langrandi Goodman, 2000\n\nReptilia\nOrder Crocodylia\nFamily Crocodylidae Cuvier, 1807\nVoay robustus A.Grandidier and Vaillant and 1872\nOrder Testudines\nFamily Testudinidae Batsch, 1788\nAldabrachelys abrupta (A. Grandidier, 1868)\nAldabrachelys grandidieri (Vaillant, 1885)\n"
    }
  ]
}